
2013-05-15T18:06:00Z
ekonomi
Serbest piyasada gün sonu itibarıyla 1,8209 TL'den alınan dolar 1,8221 TL'den satılırken, 2,3424 TL'den alınan Euro'nun satış fiyatı ise 2,3439 TL olarak gerçekleşiyor. Euro-dolar paritesi 1,2863 seviyesinde. İstanbul serbest piyasasında işlem gören dolar, Euro, Sterlin, Japon Yeni, Suudi Arabistan Riyali ve diğer para birimlerinin gün sonu itibarıyla fiyatları şöyle: Döviz Cinsi Alış Satış Günlük fark (Yüzde) ABD Doları (Serbest Piy) 1,8209 1,8221 0,4 Euro (Serbest Piy) 2,3424 2,3439 -0,14 Avustralya Doları (Serbest Piy) 1,7940 1,8070 0,22 Kanada Doları (Serbest Piy) 1,7810 1,7900 0,39 İsviçre Frangı (Serbest Piy) 1,8833 1,8848 0,32 Danimarka Kronu (Serbest Piy) 0,3130 0,3141 -0,22 İngiliz Sterlini (Serbest Piy) 2,7721 2,7741 0,41 100 Japon Yeni (Serbest Piy) 56,1170 56,2170 -0,09 Norveç Kronu (Serbest Piy) 0,3097 0,3109 -0,1 Saudi Riyali (Serbest Piy) 0,4840 0,4866 0,41 İsveç Kronu (Serbest Piy) 0,2719 0,2729 0,33 4 73 26 0
