
2013-05-28T13:26:0Z
ekonomi
Serbest piyasada gün ortası itibarıyla 1,8489 TL'den alınan dolar 1,85 TL'den satılırken, 2,391 TL'den alınan Euro'nun satış fiyatı ise 2,3917 TL olarak gerçekleşiyor. Euro-dolar paritesi 1,2931 seviyesinde. İstanbul serbest piyasasında işlem gören dolar, Euro, Sterlin, Japon Yeni, Suudi Arabistan Riyali ve diğer para birimlerinin gün ortası itibarıyla fiyatları şöyle: Döviz Cinsi Alış Satış Günlük fark (Yüzde) ABD Doları (Serbest Piy) 1,8489 1,8500 0,32 Euro (Serbest Piy) 2,3910 2,3917 0,26 Avustralya Doları (Serbest Piy) 1,7830 1,7950 0,96 Kanada Doları (Serbest Piy) 1,7820 1,7920 0,45 İsviçre Frangı (Serbest Piy) 1,9102 1,9117 -0,13 Danimarka Kronu (Serbest Piy) 0,3197 0,3208 0,5 İngiliz Sterlini (Serbest Piy) 2,7933 2,7952 0,29 100 Japon Yeni (Serbest Piy) 55,1140 55,2140 0,9 Norveç Kronu (Serbest Piy) 0,3154 0,3166 0,48 Saudi Riyali (Serbest Piy) 0,4916 0,4943 0,26 İsveç Kronu (Serbest Piy) 0,2773 0,2783 0,43 10 13 34 0
