
2013-07-03T12:51:0Z
ekonomi
Sakarya Ticaret Borsasında (STB)  dane mısırın kilogramı, 0,67 liradan işlem gördü. STB'de işlem gören ürünler şöyle:   Ürün   Birim           En az fiyat (TL) En çok fiyat (TL) Ortalam (TL) Satış şekli Msır dane   Kg   0,67 0,67 0,67 TS İç fındık    Kg 11,30 11,30 11,30 TS İç fındık (11-15mm)   Kg 12,10 12,10 12,10 TS Buğday (yemlik)   Kg   0,63 0,63 0,63 TS Ayçiçek (çerezlik)   Kg 5,20 5,20 5,20 TS   TS: Tüccar satışı - Sakarya 5 47 3 0
